	{
		"id": "user1",
		"firstName": "Robert",
		"lastName": "Downey",
		"email": "robdown@example.com",
		"password": "ironman1",
		"isAdmin": true,
		"enrollmentDetails": [
			
			{
				"id": "course1-userEnroll1",
				"course_id": "course1",
				"dateEnrolled": "Jan 1, 2022",
				"status": "enrolled"
			},
			{
				"id": "course2-userEnroll1",
				"course_id": "course2",
				"dateEnrolled": "Jan 3, 2022",
				"status": "enrolled"
			}

		]

	},

	{
		"id": "user2",
		"firstName": "Robert Bruce",
		"lastName": "Banner",
		"email": "hulk101@example.com",
		"password": "incredible_hulk",
		"isAdmin": true,
		"enrollmentDetails": [
			
			{
				"id": "course2-userEnroll1",
				"course_id": "course2",
				"dateEnrolled": "Feb 1, 2022",
				"status": "enrolled"
			}

		]

	}